{
    "KPlugin": {
        "Category": "Sound Controllers",
        "Description": "This plugin provides Minuet with a CSound-based implementation of sound controller.",
        "Description[ca@valencia]": "Aquest connector proporciona el Minuet amb una implementació del dorsal de so basada en el CSound.",
        "Description[ca]": "Aquest connector proporciona el Minuet amb una implementació del dorsal de so basada en el CSound.",
        "Description[de]": "Mit diesem Modul verwendet Minuet eine auf CSound basierende Audio-Steuerung.",
        "Description[el]": "Αυτό το πρόσθετο παρέχει στο Μινουέτο μια εφαρμογή ελεγκτή ήχου με βάση το CSound.",
        "Description[en_GB]": "This plugin provides Minuet with a CSound-based implementation of sound controller.",
        "Description[es]": "Este complemento le proporciona a Minuet una implementación de controlador de sonido basada en FluidSynth.",
        "Description[et]": "See plugin pakub Minuetile CSoundi-põhist helikontrollerit.",
        "Description[fr]": "Ce module fournit à Minuet une implémentation de contrôleur audio utilisant CSound.",
        "Description[gl]": "Este complemento fornece a Minuet un controlador de son que usa CSound.",
        "Description[it]": "Questa estensione fornisce a Minuet un'implementazione basata su CSound del controller sonoro.",
        "Description[nl]": "Deze plug-in biedt Minuet een op CSound gebaseerde implementatie van een soundcontroller.",
        "Description[nn]": "Dette programtillegget gjev Minuet støtte for ein CSound-basert lydmotor.",
        "Description[pl]": "Ta wtyczka dostarcza Minuetowi implementację sterownika dźwięku opartą na FluidSynth",
        "Description[pt]": "Este 'plugin' oferece ao Minuet uma infra-estrutura de som implementada com base no CSound.",
        "Description[pt_BR]": "Este plugin fornece ao Minuet um controlador de som implementado com base no CSound.",
        "Description[sk]": "Tento plugin poskytuje Minuet s implementáciou zvukového ovládača založeného na CSound.",
        "Description[sl]": "Ta vtičnik nudi Minuetu zvok prek krmilnika CSound.",
        "Description[sv]": "Insticksprogrammet tillhandahåller en implementering av ljudgränssnitt baserat på CSound åt Minuet.",
        "Description[tr]": "Bu eklenti, ses denetçisinin CSound temelli uygulaması ile birlikte Minuet sağlar.",
        "Description[uk]": "Цей додаток забезпечує роботу Minuet із реалізацією звукового контролера на основі CSound.",
        "Description[x-test]": "xxThis plugin provides Minuet with a CSound-based implementation of sound controller.xx",
        "Description[zh_CN]": "本插件为 Minuet 提供基于 FluidSynth 实现的声音后端。",
        "Description[zh_TW]": "這個外掛程式提供 Minuet 一個基於 CSound 實作的音訊控制器。",
        "Icon": "utilities-terminal",
        "Id": "minuetcsoundsoundcontroller",
        "Name": "CSound-based Audio Controller",
        "Name[ca@valencia]": "Controlador d'àudio basat en el CSound",
        "Name[ca]": "Controlador d'àudio basat en el CSound",
        "Name[de]": "Auf CSound basierende Audio-Steuerung",
        "Name[el]": "Ελεγκτής ήχου με βάση το CSound",
        "Name[en_GB]": "CSound-based Audio Controller",
        "Name[es]": "Controlador de sonido basado en CSound",
        "Name[et]": "CSoundi-põhine helikontroller",
        "Name[fr]": "Contrôleur audio utilisant CSound",
        "Name[gl]": "Controlador de son baseado en CSound",
        "Name[it]": "Controller audio basato su CSound",
        "Name[nl]": "Op CSound gebaseerde audiocontroller",
        "Name[nn]": "CSound-basert lydmotor",
        "Name[pl]": "Sterownik dźwięku oparty na CSound",
        "Name[pt]": "Controlador de Áudio Baseado no CSound",
        "Name[pt_BR]": "Controlador de áudio baseado no CSound",
        "Name[ru]": "Звуковой контроллер на основе CSound",
        "Name[sk]": "Zvukový ovládač založený na CSound",
        "Name[sl]": "Zvočni krmilnik na osnovi CSound-a",
        "Name[sv]": "CSound-baserat ljudgränssnitt",
        "Name[tr]": "CSound temelli Ses Denetçisi",
        "Name[uk]": "Звуковий контролер на основі CSound",
        "Name[x-test]": "xxCSound-based Audio Controllerxx",
        "Name[zh_CN]": "基于 CSound 的音频控制器",
        "Name[zh_TW]": "基於 CSound 的音訊控制器",
        "ServiceTypes": [
            "Minuet/Plugin"
        ]
    }
}
